<?xml version="1.0" encoding="UTF-8"?>
<session version="1.0">
<refactoring comment="Copy 2 elements to &apos;libs&apos;&#x0D;&#x0A;- Original project: &apos;com.dropbox.android.sample.DBRoulette&apos;&#x0D;&#x0A;- Destination element: &apos;libs&apos;&#x0D;&#x0A;- Original elements:&#x0D;&#x0A;     dropbox-android-sdk.jar&#x0D;&#x0A;     json_simple-1.1.jar" description="Copy files" element1="libs/dropbox-android-sdk.jar" element2="libs/json_simple-1.1.jar" files="2" flags="589830" folders="0" id="org.eclipse.jdt.ui.copy" policy="org.eclipse.jdt.ui.copyResources" stamp="1348913500936" target="/PMPS/libs" units="0" version="1.0"/>
</session>